// ********************************************************* //
//                    OpenSMOKE_GasStream                    //
// ********************************************************* //

	#Temperature     	K

	#MassFlowRate     	kg/s
	#MoleFractions	NC5H12	
			O2	
			N2	

	#Pressure  	atm

#END

