// ********************************************************************************************* //
//                                           OpenSMOKE_CSTR                                      //
// ********************************************************************************************* //

	#Energy	
	
	#Volume  m3
	#InitialTemperature  K
		
	#Tambient  K
	#U   W/m2/K	
  	#IntegrationTime 1.0 s	

	#RelativeTolerance 1.0E-6
  	#AbsoluteTolerance 1.E-14
	 
	#Key	NC5H12
	
	#OutputSpecies NC5H12 NC5H10 NC5H12OO NC5-QOOH NC5-OOQOOH
	
	

#END

