// *********************************************** //
//                 OpenSMOKE_PFR                   //
// *********************************************** //

	#NoEnergy	              //Isotermo		

	
        #ResidenceTime 0.1 s
	      #Diameter      6 cm
	

	#Nfile	1
  #Nvideo	10

	   
  #OutputSpecies NC7H16 C2H4 CO CO2 H2O C2H2
	#Key NC7H16 
    
   
#END



